{
    "template": "*grams*",
    "settings": {
        "analysis": {
            "analyzer": {
                "icu": {
                    "tokenizer": "keyword",
                    "filter": ["icu_normalizer"]
                }
            }
        }
    },
    "mappings": {
        "ngram": {
            "properties": {
                "term": {
                    "type": "string",
                    "index": "not_analyzed"
                },
                "years": {
                    "properties": {
                        "count": {
                            "type": "integer",
                            "index": "no"
                        },
                        "year": {
                            "type": "short",
                            "index": "no"
                        }
                    }
                },
                "suggest": {
                    "type": "completion",
                    "analyzer": "icu"
                }
            }
        }
    }
}
